[
  {
    "name": "CHAT_CHANNEL",
    "description": "all"
  },
  {
    "name": "CHAT_INPUT",
    "description": "all"
  },
  {
    "name": "CHAT_USER_ID",
    "description": "all"
  },
  {
    "name": "CI",
    "description": "0.4"
  },
  {
    "name": "CI_API_GRAPHQL_URL",
    "description": "all"
  },
  {
    "name": "CI_API_V4_URL",
    "description": "all"
  },
  {
    "name": "CI_BUILDS_DIR",
    "description": "11.10"
  },
  {
    "name": "CI_COMMIT_AUTHOR",
    "description": "all"
  },
  {
    "name": "CI_COMMIT_BEFORE_SHA",
    "description": "all"
  },
  {
    "name": "CI_COMMIT_BRANCH",
    "description": "0.5"
  },
  {
    "name": "CI_COMMIT_DESCRIPTION",
    "description": "all"
  },
  {
    "name": "CI_COMMIT_MESSAGE",
    "description": "all"
  },
  {
    "name": "CI_COMMIT_REF_NAME",
    "description": "all"
  },
  {
    "name": "CI_COMMIT_REF_PROTECTED",
    "description": "all"
  },
  {
    "name": "CI_COMMIT_REF_SLUG",
    "description": "all"
  },
  {
    "name": "CI_COMMIT_SHA",
    "description": "all"
  },
  {
    "name": "CI_COMMIT_SHORT_SHA",
    "description": "all"
  },
  {
    "name": "CI_COMMIT_TAG",
    "description": "0.5"
  },
  {
    "name": "CI_COMMIT_TAG_MESSAGE",
    "description": "all"
  },
  {
    "name": "CI_COMMIT_TIMESTAMP",
    "description": "all"
  },
  {
    "name": "CI_COMMIT_TITLE",
    "description": "all"
  },
  {
    "name": "CI_CONCURRENT_ID",
    "description": "11.10"
  },
  {
    "name": "CI_CONCURRENT_PROJECT_ID",
    "description": "11.10"
  },
  {
    "name": "CI_CONFIG_PATH",
    "description": "0.5"
  },
  {
    "name": "CI_DEBUG_SERVICES",
    "description": "15.7"
  },
  {
    "name": "CI_DEBUG_TRACE",
    "description": "1.7"
  },
  {
    "name": "CI_DEFAULT_BRANCH",
    "description": "all"
  },
  {
    "name": "CI_DEPENDENCY_PROXY_DIRECT_GROUP_IMAGE_PREFIX",
    "description": "all"
  },
  {
    "name": "CI_DEPENDENCY_PROXY_GROUP_IMAGE_PREFIX",
    "description": "all"
  },
  {
    "name": "CI_DEPENDENCY_PROXY_PASSWORD",
    "description": "all"
  },
  {
    "name": "CI_DEPENDENCY_PROXY_SERVER",
    "description": "all"
  },
  {
    "name": "CI_DEPENDENCY_PROXY_USER",
    "description": "all"
  },
  {
    "name": "CI_DEPLOY_FREEZE",
    "description": "all"
  },
  {
    "name": "CI_DEPLOY_PASSWORD",
    "description": "all"
  },
  {
    "name": "CI_DEPLOY_USER",
    "description": "all"
  },
  {
    "name": "CI_DISPOSABLE_ENVIRONMENT",
    "description": "10.1"
  },
  {
    "name": "CI_ENVIRONMENT_ACTION",
    "description": "all"
  },
  {
    "name": "CI_ENVIRONMENT_NAME",
    "description": "all"
  },
  {
    "name": "CI_ENVIRONMENT_SLUG",
    "description": "all"
  },
  {
    "name": "CI_ENVIRONMENT_TIER",
    "description": "all"
  },
  {
    "name": "CI_ENVIRONMENT_URL",
    "description": "all"
  },
  {
    "name": "CI_EXTERNAL_PULL_REQUEST_IID",
    "description": "Pull request ID from GitHub."
  },
  {
    "name": "CI_EXTERNAL_PULL_REQUEST_SOURCE_BRANCH_NAME",
    "description": "The source branch name of the pull request."
  },
  {
    "name": "CI_EXTERNAL_PULL_REQUEST_SOURCE_BRANCH_SHA",
    "description": "The HEAD SHA of the source branch of the pull request."
  },
  {
    "name": "CI_EXTERNAL_PULL_REQUEST_SOURCE_REPOSITORY",
    "description": "The source repository name of the pull request."
  },
  {
    "name": "CI_EXTERNAL_PULL_REQUEST_TARGET_BRANCH_NAME",
    "description": "The target branch name of the pull request."
  },
  {
    "name": "CI_EXTERNAL_PULL_REQUEST_TARGET_BRANCH_SHA",
    "description": "The HEAD SHA of the target branch of the pull request."
  },
  {
    "name": "CI_EXTERNAL_PULL_REQUEST_TARGET_REPOSITORY",
    "description": "The target repository name of the pull request."
  },
  {
    "name": "CI_GITLAB_FIPS_MODE",
    "description": "all"
  },
  {
    "name": "CI_HAS_OPEN_REQUIREMENTS",
    "description": "all"
  },
  {
    "name": "CI_JOB_ID",
    "description": "all"
  },
  {
    "name": "CI_JOB_IMAGE",
    "description": "12.9"
  },
  {
    "name": "CI_JOB_JWT (Deprecated)",
    "description": "all"
  },
  {
    "name": "CI_JOB_JWT_V1 (Deprecated)",
    "description": "all"
  },
  {
    "name": "CI_JOB_JWT_V2 (Deprecated)",
    "description": "all"
  },
  {
    "name": "CI_JOB_MANUAL",
    "description": "all"
  },
  {
    "name": "CI_JOB_NAME",
    "description": "0.5"
  },
  {
    "name": "CI_JOB_NAME_SLUG",
    "description": "all"
  },
  {
    "name": "CI_JOB_STAGE",
    "description": "0.5"
  },
  {
    "name": "CI_JOB_STARTED_AT",
    "description": "all"
  },
  {
    "name": "CI_JOB_STATUS",
    "description": "13.5"
  },
  {
    "name": "CI_JOB_TIMEOUT",
    "description": "15.7"
  },
  {
    "name": "CI_JOB_TOKEN",
    "description": "1.2"
  },
  {
    "name": "CI_JOB_URL",
    "description": "0.5"
  },
  {
    "name": "CI_KUBERNETES_ACTIVE",
    "description": "all"
  },
  {
    "name": "CI_MERGE_REQUEST_APPROVED",
    "description": "Approval status of the merge request. `true` when [merge request approvals](https://gitlab.com/gitlab-org/gitlab/-/blob/master/doc/ci/variables/../../user/project/merge_requests/approvals/index.md) is available and the merge request has been approved."
  },
  {
    "name": "CI_MERGE_REQUEST_ASSIGNEES",
    "description": "Comma-separated list of usernames of assignees for the merge request."
  },
  {
    "name": "CI_MERGE_REQUEST_DESCRIPTION",
    "description": "The description of the merge request. If the description is more than 2700 characters long, only the first 2700 characters are stored in the variable."
  },
  {
    "name": "CI_MERGE_REQUEST_DESCRIPTION_IS_TRUNCATED",
    "description": "`true` if `CI_MERGE_REQUEST_DESCRIPTION` is truncated down to 2700 characters because the description of the merge request is too long."
  },
  {
    "name": "CI_MERGE_REQUEST_DIFF_BASE_SHA",
    "description": "The base SHA of the merge request diff."
  },
  {
    "name": "CI_MERGE_REQUEST_DIFF_ID",
    "description": "The version of the merge request diff."
  },
  {
    "name": "CI_MERGE_REQUEST_EVENT_TYPE",
    "description": "The event type of the merge request. Can be `detached`, `merged_result` or `merge_train`."
  },
  {
    "name": "CI_MERGE_REQUEST_ID",
    "description": "The instance-level ID of the merge request. This is a unique ID across all projects on the GitLab instance."
  },
  {
    "name": "CI_MERGE_REQUEST_IID",
    "description": "The project-level IID (internal ID) of the merge request. This ID is unique for the current project, and is the number used in the merge request URL, page title, and other visible locations."
  },
  {
    "name": "CI_MERGE_REQUEST_LABELS",
    "description": "Comma-separated label names of the merge request."
  },
  {
    "name": "CI_MERGE_REQUEST_MILESTONE",
    "description": "The milestone title of the merge request."
  },
  {
    "name": "CI_MERGE_REQUEST_PROJECT_ID",
    "description": "The ID of the project of the merge request."
  },
  {
    "name": "CI_MERGE_REQUEST_PROJECT_PATH",
    "description": "The path of the project of the merge request. For example `namespace/awesome-project`."
  },
  {
    "name": "CI_MERGE_REQUEST_PROJECT_URL",
    "description": "The URL of the project of the merge request. For example, `http://192.168.10.15:3000/namespace/awesome-project`."
  },
  {
    "name": "CI_MERGE_REQUEST_REF_PATH",
    "description": "The ref path of the merge request. For example, `refs/merge-requests/1/head`."
  },
  {
    "name": "CI_MERGE_REQUEST_SOURCE_BRANCH_NAME",
    "description": "The source branch name of the merge request."
  },
  {
    "name": "CI_MERGE_REQUEST_SOURCE_BRANCH_PROTECTED",
    "description": "`true` when the source branch of the merge request is [protected](https://gitlab.com/gitlab-org/gitlab/-/blob/master/doc/ci/variables/../../user/project/protected_branches.md)."
  },
  {
    "name": "CI_MERGE_REQUEST_SOURCE_BRANCH_SHA",
    "description": "The HEAD SHA of the source branch of the merge request. The variable is empty in merge request pipelines. The SHA is present only in [merged results pipelines](https://gitlab.com/gitlab-org/gitlab/-/blob/master/doc/ci/variables/../pipelines/merged_results_pipelines.md)."
  },
  {
    "name": "CI_MERGE_REQUEST_SOURCE_PROJECT_ID",
    "description": "The ID of the source project of the merge request."
  },
  {
    "name": "CI_MERGE_REQUEST_SOURCE_PROJECT_PATH",
    "description": "The path of the source project of the merge request."
  },
  {
    "name": "CI_MERGE_REQUEST_SOURCE_PROJECT_URL",
    "description": "The URL of the source project of the merge request."
  },
  {
    "name": "CI_MERGE_REQUEST_SQUASH_ON_MERGE",
    "description": "`true` when the [squash on merge](https://gitlab.com/gitlab-org/gitlab/-/blob/master/doc/ci/variables/../../user/project/merge_requests/squash_and_merge.md) option is set."
  },
  {
    "name": "CI_MERGE_REQUEST_TARGET_BRANCH_NAME",
    "description": "The target branch name of the merge request."
  },
  {
    "name": "CI_MERGE_REQUEST_TARGET_BRANCH_PROTECTED",
    "description": "`true` when the target branch of the merge request is [protected](https://gitlab.com/gitlab-org/gitlab/-/blob/master/doc/ci/variables/../../user/project/protected_branches.md)."
  },
  {
    "name": "CI_MERGE_REQUEST_TARGET_BRANCH_SHA",
    "description": "The HEAD SHA of the target branch of the merge request. The variable is empty in merge request pipelines. The SHA is present only in [merged results pipelines](https://gitlab.com/gitlab-org/gitlab/-/blob/master/doc/ci/variables/../pipelines/merged_results_pipelines.md)."
  },
  {
    "name": "CI_MERGE_REQUEST_TITLE",
    "description": "The title of the merge request."
  },
  {
    "name": "CI_NODE_INDEX",
    "description": "all"
  },
  {
    "name": "CI_NODE_TOTAL",
    "description": "all"
  },
  {
    "name": "CI_OPEN_MERGE_REQUESTS",
    "description": "all"
  },
  {
    "name": "CI_PAGES_DOMAIN",
    "description": "all"
  },
  {
    "name": "CI_PAGES_URL",
    "description": "all"
  },
  {
    "name": "CI_PIPELINE_CREATED_AT",
    "description": "all"
  },
  {
    "name": "CI_PIPELINE_ID",
    "description": "all"
  },
  {
    "name": "CI_PIPELINE_IID",
    "description": "all"
  },
  {
    "name": "CI_PIPELINE_NAME",
    "description": "all"
  },
  {
    "name": "CI_PIPELINE_SOURCE",
    "description": "all"
  },
  {
    "name": "CI_PIPELINE_TRIGGERED",
    "description": "all"
  },
  {
    "name": "CI_PIPELINE_URL",
    "description": "0.5"
  },
  {
    "name": "CI_PROJECT_CLASSIFICATION_LABEL",
    "description": "all"
  },
  {
    "name": "CI_PROJECT_DESCRIPTION",
    "description": "all"
  },
  {
    "name": "CI_PROJECT_DIR",
    "description": "all"
  },
  {
    "name": "CI_PROJECT_ID",
    "description": "all"
  },
  {
    "name": "CI_PROJECT_NAME",
    "description": "0.5"
  },
  {
    "name": "CI_PROJECT_NAMESPACE",
    "description": "0.5"
  },
  {
    "name": "CI_PROJECT_NAMESPACE_ID",
    "description": "0.5"
  },
  {
    "name": "CI_PROJECT_PATH",
    "description": "0.5"
  },
  {
    "name": "CI_PROJECT_PATH_SLUG",
    "description": "all"
  },
  {
    "name": "CI_PROJECT_REPOSITORY_LANGUAGES",
    "description": "all"
  },
  {
    "name": "CI_PROJECT_ROOT_NAMESPACE",
    "description": "0.5"
  },
  {
    "name": "CI_PROJECT_TITLE",
    "description": "all"
  },
  {
    "name": "CI_PROJECT_URL",
    "description": "0.5"
  },
  {
    "name": "CI_PROJECT_VISIBILITY",
    "description": "all"
  },
  {
    "name": "CI_REGISTRY",
    "description": "0.5"
  },
  {
    "name": "CI_REGISTRY_IMAGE",
    "description": "0.5"
  },
  {
    "name": "CI_REGISTRY_PASSWORD",
    "description": "all"
  },
  {
    "name": "CI_REGISTRY_USER",
    "description": "all"
  },
  {
    "name": "CI_RELEASE_DESCRIPTION",
    "description": "all"
  },
  {
    "name": "CI_REPOSITORY_URL",
    "description": "all"
  },
  {
    "name": "CI_RUNNER_DESCRIPTION",
    "description": "0.5"
  },
  {
    "name": "CI_RUNNER_EXECUTABLE_ARCH",
    "description": "10.6"
  },
  {
    "name": "CI_RUNNER_ID",
    "description": "0.5"
  },
  {
    "name": "CI_RUNNER_REVISION",
    "description": "10.6"
  },
  {
    "name": "CI_RUNNER_SHORT_TOKEN",
    "description": "12.3"
  },
  {
    "name": "CI_RUNNER_TAGS",
    "description": "0.5"
  },
  {
    "name": "CI_RUNNER_VERSION",
    "description": "10.6"
  },
  {
    "name": "CI_SERVER",
    "description": "all"
  },
  {
    "name": "CI_SERVER_FQDN",
    "description": "all"
  },
  {
    "name": "CI_SERVER_HOST",
    "description": "all"
  },
  {
    "name": "CI_SERVER_NAME",
    "description": "all"
  },
  {
    "name": "CI_SERVER_PORT",
    "description": "all"
  },
  {
    "name": "CI_SERVER_PROTOCOL",
    "description": "all"
  },
  {
    "name": "CI_SERVER_REVISION",
    "description": "all"
  },
  {
    "name": "CI_SERVER_SHELL_SSH_HOST",
    "description": "all"
  },
  {
    "name": "CI_SERVER_SHELL_SSH_PORT",
    "description": "all"
  },
  {
    "name": "CI_SERVER_TLS_CA_FILE",
    "description": "all"
  },
  {
    "name": "CI_SERVER_TLS_CERT_FILE",
    "description": "all"
  },
  {
    "name": "CI_SERVER_TLS_KEY_FILE",
    "description": "all"
  },
  {
    "name": "CI_SERVER_URL",
    "description": "all"
  },
  {
    "name": "CI_SERVER_VERSION",
    "description": "all"
  },
  {
    "name": "CI_SERVER_VERSION_MAJOR",
    "description": "all"
  },
  {
    "name": "CI_SERVER_VERSION_MINOR",
    "description": "all"
  },
  {
    "name": "CI_SERVER_VERSION_PATCH",
    "description": "all"
  },
  {
    "name": "CI_SHARED_ENVIRONMENT",
    "description": "10.1"
  },
  {
    "name": "CI_TEMPLATE_REGISTRY_HOST",
    "description": "all"
  },
  {
    "name": "CI_TRIGGER_SHORT_TOKEN",
    "description": "all"
  },
  {
    "name": "GITLAB_CI",
    "description": "all"
  },
  {
    "name": "GITLAB_FEATURES",
    "description": "all"
  },
  {
    "name": "GITLAB_USER_EMAIL",
    "description": "all"
  },
  {
    "name": "GITLAB_USER_ID",
    "description": "all"
  },
  {
    "name": "GITLAB_USER_LOGIN",
    "description": "all"
  },
  {
    "name": "GITLAB_USER_NAME",
    "description": "all"
  },
  {
    "name": "KUBECONFIG",
    "description": "all"
  },
  {
    "name": "TRIGGER_PAYLOAD",
    "description": "all"
  }
]
